{
	"main_script": "threejs_sample.js",
	"icon": "threejs.webp",
	"width": 400,
	"height": 300,
	"animation": true,
	"dependencies": [
		"scripts/three.min.js"
	],
	"title": "Three.js minimal app",
	"version": "1.0.0",
	"description": "A simple Three.js demonstration",
	"keywords": [ "three", "3d", "animation" ],
	"author": "Luc Renambot <renambot@gmail.com>",
	"license": "SAGE2-Software-License"
}
